/clanek/2152-pohar-behej-com-nemame-dobre-zpravy	12.02.2009 00:11:20 
/clanek/2152-pohar-behej-com-nemame-dobre-zpravy	12.02.2009 02:09:41 
/clanek/2152-pohar-behej-com-nemame-dobre-zpravy	12.02.2009 06:48:19 
/clanek/2152-pohar-behej-com-nemame-dobre-zpravy	12.02.2009 09:01:35 
/clanek/2152-pohar-behej-com-nemame-dobre-zpravy	12.02.2009 09:13:48 
/clanek/2152-pohar-behej-com-nemame-dobre-zpravy	12.02.2009 09:39:04 
/clanek/2152-pohar-behej-com-nemame-dobre-zpravy	12.02.2009 10:14:14 
/clanek/2152-pohar-behej-com-nemame-dobre-zpravy	12.02.2009 12:17:06 
/clanek/2152-pohar-behej-com-nemame-dobre-zpravy	12.02.2009 14:08:07 
/clanek/2152-pohar-behej-com-nemame-dobre-zpravy	12.02.2009 15:45:10 
/clanek/2152-pohar-behej-com-nemame-dobre-zpravy	12.02.2009 16:38:53 
/clanek/2152-pohar-behej-com-nemame-dobre-zpravy	12.02.2009 16:45:11 
/clanek/2152-pohar-behej-com-nemame-dobre-zpravy	12.02.2009 17:27:28 
/clanek/2152-pohar-behej-com-nemame-dobre-zpravy	12.02.2009 18:43:44 
/clanek/2152-pohar-behej-com-nemame-dobre-zpravy	12.02.2009 19:05:50 
/clanek/2152-pohar-behej-com-nemame-dobre-zpravy	12.02.2009 21:19:18 
/clanek/2152-pohar-behej-com-nemame-dobre-zpravy	12.02.2009 22:21:46 
/clanek/2152-pohar-behej-com-nemame-dobre-zpravy	13.02.2009 00:05:34 
/clanek/2152-pohar-behej-com-nemame-dobre-zpravy	13.02.2009 08:28:32 
/clanek/2152-pohar-behej-com-nemame-dobre-zpravy	13.02.2009 09:00:09 
/clanek/2152-pohar-behej-com-nemame-dobre-zpravy	13.02.2009 09:55:05 
/clanek/2152-pohar-behej-com-nemame-dobre-zpravy	13.02.2009 10:52:38 
/clanek/2152-pohar-behej-com-nemame-dobre-zpravy	13.02.2009 11:00:32 
/clanek/2152-pohar-behej-com-nemame-dobre-zpravy	13.02.2009 11:15:51 
/clanek/2152-pohar-behej-com-nemame-dobre-zpravy	13.02.2009 11:25:19 
/clanek/2152-pohar-behej-com-nemame-dobre-zpravy	13.02.2009 14:16:31 
/clanek/2152-pohar-behej-com-nemame-dobre-zpravy	13.02.2009 15:12:02 
/clanek/2152-pohar-behej-com-nemame-dobre-zpravy	13.02.2009 17:23:44 
/clanek/2152-pohar-behej-com-nemame-dobre-zpravy	13.02.2009 18:13:40 
/clanek/2152-pohar-behej-com-nemame-dobre-zpravy	13.02.2009 20:01:54 
/clanek/13318-rozhovor-letos-chci-maraton-pod-tri-rika-brnenska-nadeje	24.01.2018 21:07:27 
